…
For data cleaning, I change the types of "tmax" and "tmin" from <chr> to <dbl>.

And I change the unit of "prcp" from (tenths of mm) to (mm).

And I change the unit of "tmax" and "tmin" from (tenths of degrees C) to (degrees C).

``` r
ny_noaa_tidy %>% 
  count(snow) %>% 
  arrange(desc(n))
```

    ## # A tibble: 282 x 2
    ##     snow       n
    ##    <int>   <int>
    ##  1     0 2008508
    ##  2    NA  381221
    ##  3    25   31022
    ##  4    13   23095
    ##  5    51   18274
    ##  6    76   10173
    ##  7     8    9962
    ##  8     5    9748
    ##  9    38    9197
    ## 10     3    8790
    ## # ... with 272 more rows
…
